<?xml version="1.0" encoding="utf-8"?>
<!-- Generator: Adobe Illustrator 22.0.0, SVG Export Plug-In . SVG Version: 6.00 Build 0)  -->
<svg version="1.1" id="Capa_1" xmlns="http://www.w3.org/2000/svg" xmlns:xlink="http://www.w3.org/1999/xlink" x="0px" y="0px"
	 viewBox="0 0 44.2 44.2" style="enable-background:new 0 0 44.2 44.2;" xml:space="preserve">
<style type="text/css">
	.st0{fill:#8F8F8F;}
</style>
<g>
	<g>
		<path class="st0" d="M31.4,21.4H12.8c-0.4,0-0.8,0.3-0.8,0.8c0,0.4,0.3,0.8,0.8,0.8h18.6c0.4,0,0.8-0.3,0.8-0.8
			C32.2,21.7,31.8,21.4,31.4,21.4z"/>
		<g>
			<path class="st0" d="M32.2,22.1c0,0.4-0.3,0.8-0.8,0.8H12.8c-0.4,0-0.8-0.3-0.8-0.8c0-0.4,0.3-0.8,0.8-0.8h18.6
				C31.8,21.4,32.2,21.7,32.2,22.1z"/>
		</g>
	</g>
</g>
</svg>
